C:\Users\Jelena\eclipse-workspace\priprema1\src\main\java\app\model\TipZvanja.java
C:\Users\Jelena\eclipse-workspace\priprema1\src\main\java\app\service\NaucnaOblastService.java
C:\Users\Jelena\eclipse-workspace\priprema1\src\main\java\app\controller\ZvanjeController.java
C:\Users\Jelena\eclipse-workspace\priprema1\src\main\java\app\model\Zvanje.java
C:\Users\Jelena\eclipse-workspace\priprema1\src\main\java\app\repository\TipZvanjaRepository.java
C:\Users\Jelena\eclipse-workspace\priprema1\src\main\java\app\service\ZvanjeService.java
C:\Users\Jelena\eclipse-workspace\priprema1\src\main\java\app\service\NastavnikService.java
C:\Users\Jelena\eclipse-workspace\priprema1\src\main\java\app\dto\NaucnaOblastDTO.java
C:\Users\Jelena\eclipse-workspace\priprema1\src\main\java\app\dto\TipZvanjaDTO.java
C:\Users\Jelena\eclipse-workspace\priprema1\src\main\java\app\model\NaucnaOblast.java
C:\Users\Jelena\eclipse-workspace\priprema1\src\main\java\app\controller\TipZvanjaController.java
C:\Users\Jelena\eclipse-workspace\priprema1\src\main\java\app\App.java
C:\Users\Jelena\eclipse-workspace\priprema1\src\main\java\app\repository\NastavnikRepository.java
C:\Users\Jelena\eclipse-workspace\priprema1\src\main\java\app\service\TipZvanjaService.java
C:\Users\Jelena\eclipse-workspace\priprema1\src\main\java\app\model\Nastavnik.java
C:\Users\Jelena\eclipse-workspace\priprema1\src\main\java\app\repository\ZvanjeRepository.java
C:\Users\Jelena\eclipse-workspace\priprema1\src\main\java\app\controller\NastavnikController.java
C:\Users\Jelena\eclipse-workspace\priprema1\src\main\java\app\dto\ZvanjeDTO.java
C:\Users\Jelena\eclipse-workspace\priprema1\src\main\java\app\repository\NaucnaOblastRepository.java
C:\Users\Jelena\eclipse-workspace\priprema1\src\main\java\app\controller\NaucnaOblastController.java
C:\Users\Jelena\eclipse-workspace\priprema1\src\main\java\app\dto\NastavnikDTO.java
